…
We have to tidy and split the data into the different singers

timeseries <- data %>% 
  pivot_longer(`Michael Jackson`:`Lil Wayne`,
               names_to = "singer",
               values_to = "y") %>% 
  mutate(ds = as_date(Date)) %>% 
  select(ds,singer,y) %>% 
  arrange(singer,ds)

timeseries

## # A tibble: 9,870 x 3
##    ds         singer     y
##    <date>     <chr>  <dbl>
##  1 2015-07-01 Eminem 23193
##  2 2015-07-02 Eminem 37222
##  3 2015-07-03 Eminem 26665
##  4 2015-07-04 Eminem 21772
##  5 2015-07-05 Eminem 21131
##  6 2015-07-06 Eminem 21407
##  7 2015-07-07 Eminem 20295
##  8 2015-07-08 Eminem 19430
##  9 2015-07-09 Eminem 19640
## 10 2015-07-10 Eminem 20128
## # … with 9,860 more rows
…
Prophet Basic Forecasting

To forecast individual singer, we are spliting their data

timeseries_split <- timeseries %>% 
  split(.$singer)

timeseries_split

## $`Michael Jackson`
## # A tibble: 1,645 x 3
##    ds         singer              y
##    <date>     <fct>           <dbl>
##  1 2015-07-01 Michael Jackson  4.30
##  2 2015-07-02 Michael Jackson  4.28
##  3 2015-07-03 Michael Jackson  4.27
##  4 2015-07-04 Michael Jackson  4.28
##  5 2015-07-05 Michael Jackson  4.30
##  6 2015-07-06 Michael Jackson  4.31
##  7 2015-07-07 Michael Jackson  4.28
##  8 2015-07-08 Michael Jackson  4.34
##  9 2015-07-09 Michael Jackson  4.28
## 10 2015-07-10 Michael Jackson  4.29
## # … with 1,635 more rows
## 
## $`Lady Gaga`
## # A tibble: 1,645 x 3
##    ds         singer        y
##    <date>     <fct>     <dbl>
##  1 2015-07-01 Lady Gaga  3.93
##  2 2015-07-02 Lady Gaga  3.91
##  3 2015-07-03 Lady Gaga  3.90
##  4 2015-07-04 Lady Gaga  3.91
##  5 2015-07-05 Lady Gaga  3.95
##  6 2015-07-06 Lady Gaga  3.91
##  7 2015-07-07 Lady Gaga  3.92
##  8 2015-07-08 Lady Gaga  3.94
##  9 2015-07-09 Lady Gaga  3.95
## 10 2015-07-10 Lady Gaga  3.96
## # … with 1,635 more rows
## 
## $Eminem
## # A tibble: 1,645 x 3
##    ds         singer     y
##    <date>     <fct>  <dbl>
##  1 2015-07-01 Eminem  4.37
##  2 2015-07-02 Eminem  4.57
##  3 2015-07-03 Eminem  4.43
##  4 2015-07-04 Eminem  4.34
##  5 2015-07-05 Eminem  4.32
##  6 2015-07-06 Eminem  4.33
##  7 2015-07-07 Eminem  4.31
##  8 2015-07-08 Eminem  4.29
##  9 2015-07-09 Eminem  4.29
## 10 2015-07-10 Eminem  4.30
## # … with 1,635 more rows
## 
## $`Justin Bieber`
## # A tibble: 1,645 x 3
##    ds         singer            y
##    <date>     <fct>         <dbl>
##  1 2015-07-01 Justin Bieber  4.05
##  2 2015-07-02 Justin Bieber  4.06
##  3 2015-07-03 Justin Bieber  4.04
##  4 2015-07-04 Justin Bieber  4.03
##  5 2015-07-05 Justin Bieber  4.03
##  6 2015-07-06 Justin Bieber  4.07
##  7 2015-07-07 Justin Bieber  4.15
##  8 2015-07-08 Justin Bieber  4.14
##  9 2015-07-09 Justin Bieber  4.09
## 10 2015-07-10 Justin Bieber  4.05
## # … with 1,635 more rows
## 
## $`Freddie Mercury`
## # A tibble: 1,645 x 3
##    ds         singer              y
##    <date>     <fct>           <dbl>
##  1 2015-07-01 Freddie Mercury  4.69
##  2 2015-07-02 Freddie Mercury  4.47
##  3 2015-07-03 Freddie Mercury  4.37
##  4 2015-07-04 Freddie Mercury  4.28
##  5 2015-07-05 Freddie Mercury  4.23
##  6 2015-07-06 Freddie Mercury  4.23
##  7 2015-07-07 Freddie Mercury  4.17
##  8 2015-07-08 Freddie Mercury  4.27
##  9 2015-07-09 Freddie Mercury  4.19
## 10 2015-07-10 Freddie Mercury  4.21
## # … with 1,635 more rows
## 
## $`Lil Wayne`
## # A tibble: 1,645 x 3
##    ds         singer        y
##    <date>     <fct>     <dbl>
##  1 2015-07-01 Lil Wayne  4.15
##  2 2015-07-02 Lil Wayne  4.13
##  3 2015-07-03 Lil Wayne  4.12
##  4 2015-07-04 Lil Wayne  4.51
##  5 2015-07-05 Lil Wayne  4.49
##  6 2015-07-06 Lil Wayne  4.48
##  7 2015-07-07 Lil Wayne  4.40
##  8 2015-07-08 Lil Wayne  4.40
##  9 2015-07-09 Lil Wayne  4.36
## 10 2015-07-10 Lil Wayne  4.37
## # … with 1,635 more rows
…
